    z,     phi,       u,       T
    d,        ,  rt(gd),      gd
 0.00, 0.55581, 0.03158, 0.01855
 0.25, 0.65157, 0.03424, 0.01965
 0.50, 0.72016, 0.03827, 0.02176
 0.75, 0.75051, 0.04491, 0.02554
 1.00, 0.75370, 0.05503, 0.03136
 1.25, 0.75030, 0.06772, 0.03869
 1.50, 0.74577, 0.08095, 0.04663
 1.75, 0.73519, 0.09429, 0.05528
 2.00, 0.72348, 0.10832, 0.06519
 2.25, 0.71785, 0.12221, 0.07607
 2.50, 0.71368, 0.13489, 0.08748
 2.75, 0.70675, 0.14687, 0.09999
 3.00, 0.70196, 0.15876, 0.11422
 3.25, 0.69936, 0.17010, 0.13018
 3.50, 0.69180, 0.18093, 0.14853
 3.75, 0.68005, 0.19201, 0.17050
 4.00, 0.67048, 0.20314, 0.19574
 4.25, 0.66125, 0.21327, 0.22283
 4.50, 0.64815, 0.22225, 0.25198
 4.75, 0.63482, 0.23061, 0.28387
 5.00, 0.62421, 0.23833, 0.31721
 5.25, 0.61239, 0.24529, 0.35105
 5.50, 0.59806, 0.25223, 0.38781
 5.75, 0.58390, 0.26061, 0.43084
 6.00, 0.56712, 0.27241, 0.48240
 6.25, 0.54283, 0.29100, 0.54767
 6.50, 0.51374, 0.32158, 0.63675
 6.75, 0.48488, 0.36959, 0.75717
 7.00, 0.45477, 0.43877, 0.90650
 7.25, 0.42145, 0.53108, 1.07557
 7.50, 0.38988, 0.64250, 1.24606
 7.75, 0.36497, 0.75362, 1.38001
 8.00, 0.34313, 0.83677, 1.44061
 8.25, 0.31664, 0.87955, 1.41949
 8.50, 0.28254, 0.88758, 1.32861
 8.75, 0.24324, 0.87167, 1.19006
 9.00, 0.20131, 0.84352, 1.03619
 9.25, 0.15760, 0.81394, 0.89791
 9.50, 0.11385, 0.78910, 0.79107
 9.75, 0.07421, 0.77051, 0.71679
10.00, 0.04299, 0.75726, 0.66775
10.25, 0.02197, 0.74762, 0.63572
10.50, 0.00988, 0.73890, 0.61573
10.75, 0.00392, 0.72816, 0.60523
11.00, 0.00143, 0.71441, 0.60259
11.25, 0.00065, 0.70461, 0.60267
11.50, 0.00068, 0.69740, 0.60447
11.75, 0.00113, 0.69332, 0.60461
12.00, 0.00172, 0.68997, 0.60467
12.25, 0.00213, 0.68606, 0.60578
12.50, 0.00211, 0.68271, 0.60696
12.75, 0.00166, 0.68038, 0.60741
13.00, 0.00102, 0.67834, 0.60839
13.25, 0.00050, 0.67596, 0.61029
13.50, 0.00019, 0.67323, 0.61285
13.75, 0.00006, 0.67092, 0.61515
14.00, 0.00001, 0.66945, 0.61686
14.25, 0.00000, 0.66803, 0.61837
14.50, 0.00000, 0.66652, 0.61999
14.75, 0.00000, 0.66476, 0.62180
15.00, 0.00000, 0.66299, 0.62407
15.25, 0.00000, 0.66121, 0.62677
15.50, 0.00000, 0.65967, 0.62885
15.75, 0.00000, 0.65855, 0.63045
16.00, 0.00000, 0.65759, 0.63204
16.25, 0.00000, 0.65643, 0.63348
16.50, 0.00000, 0.65489, 0.63534
16.75, 0.00000, 0.65349, 0.63749
17.00, 0.00000, 0.65198, 0.63931
17.25, 0.00000, 0.65050, 0.64098
17.50, 0.00000, 0.64932, 0.64275
17.75, 0.00000, 0.64825, 0.64455
18.00, 0.00000, 0.64709, 0.64643
18.25, 0.00000, 0.64585, 0.64836
18.50, 0.00000, 0.64464, 0.65020
18.75, 0.00000, 0.64364, 0.65179
19.00, 0.00000, 0.64257, 0.65328
19.25, 0.00000, 0.64150, 0.65451
19.50, 0.00000, 0.64062, 0.65559
19.75, 0.00000, 0.64000, 0.65649
20.00, 0.00000, 0.63946, 0.65729
20.25, 0.00000, 0.63898, 0.65789
20.50, 0.00000, 0.63872, 0.65822
20.75, 0.00000, 0.63858, 0.65839
21.00, 0.00000, 0.63845, 0.65850
21.25, 0.00000, 0.63831, 0.65862
21.50, 0.00000, 0.63818, 0.65878
21.75, 0.00000, 0.63806, 0.65895
22.00, 0.00000, 0.63793, 0.65916
22.25, 0.00000, 0.63779, 0.65935
22.50, 0.00000, 0.63766, 0.65955
22.75, 0.00000, 0.63756, 0.65966
23.00, 0.00000, 0.63749, 0.65972
23.25, 0.00000, 0.63744, 0.65975
23.50, 0.00000, 0.63740, 0.65979
23.75, 0.00000, 0.63739, 0.65987
24.00, 0.00000, 0.63738, 0.65998
24.25, 0.00000, 0.63738, 0.66013
24.50, 0.00000, 0.63739, 0.66028
24.75, 0.00000, 0.63739, 0.66039
25.00, 0.00000, 0.63737, 0.66049
