    z,     phi,       u,       T
    d,        ,  rt(gd),      gd
 0.00, 0.62185, 0.06952, 0.03254
 0.25, 0.70139, 0.07554, 0.03481
 0.50, 0.74592, 0.08592, 0.03944
 0.75, 0.75202, 0.10396, 0.04768
 1.00, 0.73749, 0.13158, 0.05979
 1.25, 0.72338, 0.16608, 0.07422
 1.50, 0.71265, 0.20297, 0.08954
 1.75, 0.69986, 0.24205, 0.10576
 2.00, 0.68864, 0.28468, 0.12271
 2.25, 0.68227, 0.32885, 0.13969
 2.50, 0.67461, 0.37320, 0.15766
 2.75, 0.66360, 0.41997, 0.17803
 3.00, 0.65585, 0.46899, 0.19926
 3.25, 0.65197, 0.51626, 0.21872
 3.50, 0.64547, 0.56075, 0.23695
 3.75, 0.63665, 0.60520, 0.25620
 4.00, 0.63087, 0.65041, 0.27668
 4.25, 0.62668, 0.69537, 0.29778
 4.50, 0.61957, 0.74121, 0.31990
 4.75, 0.61116, 0.78922, 0.34272
 5.00, 0.60404, 0.83786, 0.36480
 5.25, 0.59616, 0.88569, 0.38587
 5.50, 0.58712, 0.93380, 0.40709
 5.75, 0.58038, 0.98262, 0.42927
 6.00, 0.57588, 1.03082, 0.45195
 6.25, 0.56996, 1.07864, 0.47476
 6.50, 0.56283, 1.12822, 0.49781
 6.75, 0.55720, 1.17972, 0.52037
 7.00, 0.55147, 1.23139, 0.54196
 7.25, 0.54237, 1.28331, 0.56442
 7.50, 0.53105, 1.33646, 0.59129
 7.75, 0.52014, 1.39014, 0.62653
 8.00, 0.50864, 1.44383, 0.67408
 8.25, 0.49434, 1.50026, 0.73693
 8.50, 0.47769, 1.56417, 0.81666
 8.75, 0.46016, 1.64013, 0.91389
 9.00, 0.44192, 1.73280, 1.03102
 9.25, 0.42299, 1.84727, 1.17298
 9.50, 0.40413, 1.98836, 1.34517
 9.75, 0.38577, 2.16151, 1.54894
10.00, 0.36818, 2.37370, 1.77521
10.25, 0.35290, 2.63033, 1.99230
10.50, 0.34218, 2.92396, 2.14344
10.75, 0.33631, 3.22649, 2.18243
11.00, 0.33189, 3.50335, 2.12244
11.25, 0.32271, 3.73022, 2.02726
11.50, 0.30242, 3.89610, 1.96417
11.75, 0.26764, 4.00239, 1.96487
12.00, 0.22000, 4.06042, 2.02137
12.25, 0.16597, 4.08492, 2.11064
12.50, 0.11415, 4.08888, 2.21092
12.75, 0.07152, 4.08174, 2.30806
13.00, 0.04102, 4.06909, 2.39615
13.25, 0.02170, 4.05408, 2.47341
13.50, 0.01068, 4.03913, 2.53793
13.75, 0.00493, 4.02600, 2.58928
14.00, 0.00214, 4.01510, 2.62961
14.25, 0.00088, 4.00532, 2.66244
14.50, 0.00034, 3.99561, 2.69057
14.75, 0.00012, 3.98583, 2.71619
15.00, 0.00004, 3.97607, 2.74085
15.25, 0.00001, 3.96637, 2.76537
15.50, 0.00000, 3.95679, 2.78976
15.75, 0.00000, 3.94740, 2.81320
16.00, 0.00000, 3.93821, 2.83529
16.25, 0.00000, 3.92908, 2.85643
16.50, 0.00000, 3.92002, 2.87658
16.75, 0.00000, 3.91108, 2.89554
17.00, 0.00000, 3.90218, 2.91326
17.25, 0.00000, 3.89338, 2.92986
17.50, 0.00000, 3.88491, 2.94540
17.75, 0.00000, 3.87709, 2.95952
18.00, 0.00000, 3.86998, 2.97215
18.25, 0.00000, 3.86336, 2.98369
18.50, 0.00000, 3.85697, 2.99505
18.75, 0.00000, 3.85062, 3.00669
19.00, 0.00000, 3.84426, 3.01877
19.25, 0.00000, 3.83802, 3.03113
19.50, 0.00000, 3.83202, 3.04333
19.75, 0.00000, 3.82623, 3.05517
20.00, 0.00000, 3.82052, 3.06687
20.25, 0.00000, 3.81481, 3.07851
20.50, 0.00000, 3.80921, 3.08973
20.75, 0.00000, 3.80372, 3.10077
21.00, 0.00000, 3.79831, 3.11168
21.25, 0.00000, 3.79301, 3.12222
21.50, 0.00000, 3.78785, 3.13226
21.75, 0.00000, 3.78280, 3.14193
22.00, 0.00000, 3.77785, 3.15164
22.25, 0.00000, 3.77297, 3.16137
22.50, 0.00000, 3.76815, 3.17067
22.75, 0.00000, 3.76334, 3.17987
23.00, 0.00000, 3.75850, 3.18947
23.25, 0.00000, 3.75370, 3.19910
23.50, 0.00000, 3.74901, 3.20830
23.75, 0.00000, 3.74450, 3.21700
24.00, 0.00000, 3.74020, 3.22543
24.25, 0.00000, 3.73604, 3.23387
24.50, 0.00000, 3.73194, 3.24231
24.75, 0.00000, 3.72781, 3.25099
25.00, 0.00000, 3.72367, 3.25992
