    z,     phi,       u,       T
    d,        ,  rt(gd),      gd
 0.00, 0.45624, 0.02637, 0.00867
 0.25, 0.56257, 0.02884, 0.00913
 0.50, 0.65414, 0.03251, 0.01005
 0.75, 0.70907, 0.03863, 0.01171
 1.00, 0.72485, 0.04859, 0.01437
 1.25, 0.72096, 0.06228, 0.01787
 1.50, 0.71439, 0.07750, 0.02176
 1.75, 0.70529, 0.09256, 0.02587
 2.00, 0.69319, 0.10778, 0.03046
 2.25, 0.68453, 0.12315, 0.03554
 2.50, 0.67921, 0.13762, 0.04101
 2.75, 0.67091, 0.15113, 0.04719
 3.00, 0.66066, 0.16442, 0.05458
 3.25, 0.65285, 0.17726, 0.06330
 3.50, 0.64391, 0.18900, 0.07339
 3.75, 0.62964, 0.20007, 0.08543
 4.00, 0.61443, 0.21143, 0.10001
 4.25, 0.60257, 0.22347, 0.11706
 4.50, 0.59126, 0.23672, 0.13706
 4.75, 0.57936, 0.25296, 0.16210
 5.00, 0.57111, 0.27492, 0.19454
 5.25, 0.56642, 0.30574, 0.23635
 5.50, 0.55785, 0.34962, 0.29082
 5.75, 0.53960, 0.41051, 0.36098
 6.00, 0.51042, 0.48652, 0.44249
 6.25, 0.46683, 0.56779, 0.52395
 6.50, 0.40288, 0.64491, 0.59759
 6.75, 0.32000, 0.71597, 0.66295
 7.00, 0.23141, 0.78188, 0.72029
 7.25, 0.15338, 0.83930, 0.76743
 7.50, 0.09456, 0.88417, 0.80353
 7.75, 0.05447, 0.91686, 0.83042
 8.00, 0.02885, 0.94020, 0.85041
 8.25, 0.01365, 0.95661, 0.86594
 8.50, 0.00565, 0.96548, 0.88442
 8.75, 0.00208, 0.95170, 0.92892
 9.00, 0.00090, 0.87736, 1.02101
 9.25, 0.00105, 0.79796, 1.12320
 9.50, 0.00233, 0.75440, 1.19129
 9.75, 0.00484, 0.72056, 1.22986
10.00, 0.00819, 0.70259, 1.25655
10.25, 0.01105, 0.67775, 1.27706
10.50, 0.01187, 0.64125, 1.28774
10.75, 0.01016, 0.61810, 1.29639
11.00, 0.00695, 0.60655, 1.30856
11.25, 0.00383, 0.58281, 1.31649
11.50, 0.00171, 0.54779, 1.31325
11.75, 0.00063, 0.51904, 1.30826
12.00, 0.00019, 0.50394, 1.30784
12.25, 0.00005, 0.49303, 1.31141
12.50, 0.00001, 0.47361, 1.31505
12.75, 0.00000, 0.44316, 1.30559
13.00, 0.00000, 0.41492, 1.28997
13.25, 0.00000, 0.39515, 1.27893
13.50, 0.00000, 0.38246, 1.27441
13.75, 0.00000, 0.36999, 1.27377
14.00, 0.00000, 0.34977, 1.26971
14.25, 0.00000, 0.32602, 1.25875
14.50, 0.00000, 0.30377, 1.24087
14.75, 0.00000, 0.28535, 1.22181
15.00, 0.00000, 0.27345, 1.21021
15.25, 0.00000, 0.26717, 1.20353
15.50, 0.00000, 0.26448, 1.20133
15.75, 0.00000, 0.26307, 1.20072
16.00, 0.00000, 0.26192, 1.19976
16.25, 0.00000, 0.26116, 1.19922
16.50, 0.00000, 0.26054, 1.19875
16.75, 0.00000, 0.26005, 1.19820
17.00, 0.00000, 0.25960, 1.19776
17.25, 0.00000, 0.25912, 1.19723
17.50, 0.00000, 0.25858, 1.19648
17.75, 0.00000, 0.25801, 1.19556
18.00, 0.00000, 0.25743, 1.19453
18.25, 0.00000, 0.25685, 1.19342
18.50, 0.00000, 0.25625, 1.19225
18.75, 0.00000, 0.25566, 1.19108
19.00, 0.00000, 0.25509, 1.18992
19.25, 0.00000, 0.25453, 1.18878
19.50, 0.00000, 0.25398, 1.18765
19.75, 0.00000, 0.25345, 1.18655
20.00, 0.00000, 0.25294, 1.18550
20.25, 0.00000, 0.25246, 1.18449
20.50, 0.00000, 0.25199, 1.18350
20.75, 0.00000, 0.25151, 1.18250
21.00, 0.00000, 0.25103, 1.18150
21.25, 0.00000, 0.25057, 1.18054
21.50, 0.00000, 0.25016, 1.17965
21.75, 0.00000, 0.24978, 1.17884
22.00, 0.00000, 0.24943, 1.17811
22.25, 0.00000, 0.24910, 1.17746
22.50, 0.00000, 0.24878, 1.17685
22.75, 0.00000, 0.24847, 1.17627
23.00, 0.00000, 0.24816, 1.17571
23.25, 0.00000, 0.24784, 1.17516
23.50, 0.00000, 0.24752, 1.17462
23.75, 0.00000, 0.24721, 1.17406
24.00, 0.00000, 0.24690, 1.17348
24.25, 0.00000, 0.24658, 1.17284
24.50, 0.00000, 0.24624, 1.17215
24.75, 0.00000, 0.24588, 1.17139
25.00, 0.00000, 0.24547, 1.17055
