    z,     phi,       u,       T
    d,        ,  rt(gd),      gd
 0.00, 0.76027, 0.04832, 0.05461
 0.25, 0.78371, 0.05359, 0.05792
 0.50, 0.77703, 0.06302, 0.06521
 0.75, 0.75591, 0.07828, 0.07764
 1.00, 0.73919, 0.09881, 0.09475
 1.25, 0.72891, 0.12204, 0.11520
 1.50, 0.71411, 0.14759, 0.13963
 1.75, 0.69330, 0.17755, 0.17031
 2.00, 0.67288, 0.21273, 0.20811
 2.25, 0.65027, 0.25400, 0.25389
 2.50, 0.62087, 0.30606, 0.31213
 2.75, 0.59068, 0.37355, 0.38857
 3.00, 0.56404, 0.45632, 0.48732
 3.25, 0.53348, 0.55739, 0.61689
 3.50, 0.49481, 0.69078, 0.79127
 3.75, 0.45719, 0.86844, 1.00989
 4.00, 0.42881, 1.08097, 1.24678
 4.25, 0.40599, 1.30955, 1.48323
 4.50, 0.38260, 1.55385, 1.72129
 4.75, 0.35979, 1.82277, 1.94810
 5.00, 0.34180, 2.10570, 2.12954
 5.25, 0.32906, 2.37547, 2.25166
 5.50, 0.31885, 2.61465, 2.32880
 5.75, 0.30927, 2.82176, 2.37109
 6.00, 0.30019, 2.99752, 2.37633
 6.25, 0.29165, 3.13891, 2.34435
 6.50, 0.28307, 3.24489, 2.28316
 6.75, 0.27363, 3.32112, 2.20393
 7.00, 0.26274, 3.37629, 2.11814
 7.25, 0.24976, 3.41788, 2.04048
 7.50, 0.23363, 3.45278, 1.98861
 7.75, 0.21295, 3.48946, 1.98129
 8.00, 0.18708, 3.53828, 2.03572
 8.25, 0.15722, 3.60982, 2.16627
 8.50, 0.12645, 3.71086, 2.37432
 8.75, 0.09828, 3.84186, 2.64296
 9.00, 0.07512, 3.99529, 2.94325
 9.25, 0.05760, 4.15460, 3.24284
 9.50, 0.04507, 4.30108, 3.52610
 9.75, 0.03635, 4.42466, 3.79773
10.00, 0.03034, 4.51862, 4.06778
10.25, 0.02620, 4.58197, 4.35763
10.50, 0.02329, 4.61544, 4.67182
10.75, 0.02109, 4.62311, 5.01025
11.00, 0.01936, 4.61069, 5.36750
11.25, 0.01804, 4.58539, 5.72962
11.50, 0.01713, 4.54949, 6.07939
11.75, 0.01645, 4.50954, 6.39556
12.00, 0.01568, 4.47346, 6.64645
12.25, 0.01454, 4.44251, 6.85527
12.50, 0.01299, 4.41492, 7.02606
12.75, 0.01122, 4.39119, 7.17079
13.00, 0.00948, 4.37170, 7.28579
13.25, 0.00786, 4.35534, 7.36917
13.50, 0.00633, 4.34028, 7.43935
13.75, 0.00480, 4.32462, 7.50998
14.00, 0.00331, 4.30906, 7.58143
14.25, 0.00199, 4.29407, 7.64840
14.50, 0.00102, 4.27846, 7.71288
14.75, 0.00043, 4.26318, 7.77363
15.00, 0.00015, 4.24833, 7.83114
15.25, 0.00004, 4.23348, 7.88380
15.50, 0.00001, 4.21831, 7.93971
15.75, 0.00000, 4.20240, 7.99908
16.00, 0.00000, 4.18752, 8.05264
16.25, 0.00000, 4.17263, 8.10402
16.50, 0.00000, 4.15834, 8.15081
16.75, 0.00000, 4.14452, 8.19730
17.00, 0.00000, 4.13057, 8.24368
17.25, 0.00000, 4.11688, 8.28874
17.50, 0.00000, 4.10434, 8.32869
17.75, 0.00000, 4.09285, 8.36314
18.00, 0.00000, 4.08168, 8.39601
18.25, 0.00000, 4.07087, 8.42926
18.50, 0.00000, 4.06085, 8.46092
18.75, 0.00000, 4.05160, 8.49026
19.00, 0.00000, 4.04312, 8.51685
19.25, 0.00000, 4.03458, 8.54182
19.50, 0.00000, 4.02581, 8.56579
19.75, 0.00000, 4.01725, 8.58905
20.00, 0.00000, 4.00917, 8.61097
20.25, 0.00000, 4.00179, 8.63153
20.50, 0.00000, 3.99500, 8.65173
20.75, 0.00000, 3.98868, 8.67073
21.00, 0.00000, 3.98239, 8.68868
21.25, 0.00000, 3.97611, 8.70595
21.50, 0.00000, 3.97029, 8.72184
21.75, 0.00000, 3.96485, 8.73625
22.00, 0.00000, 3.95963, 8.74970
22.25, 0.00000, 3.95462, 8.76246
22.50, 0.00000, 3.94993, 8.77425
22.75, 0.00000, 3.94568, 8.78523
23.00, 0.00000, 3.94172, 8.79651
23.25, 0.00000, 3.93785, 8.80810
23.50, 0.00000, 3.93400, 8.81935
23.75, 0.00000, 3.93037, 8.82925
24.00, 0.00000, 3.92718, 8.83796
24.25, 0.00000, 3.92423, 8.84616
24.50, 0.00000, 3.92133, 8.85417
24.75, 0.00000, 3.91837, 8.86235
25.00, 0.00000, 3.91547, 8.87052
