    z,     phi,       u,       T
    d,        ,  rt(gd),      gd
 0.00, 0.76546, 0.04854, 0.03911
 0.25, 0.79175, 0.05370, 0.04242
 0.50, 0.78396, 0.06318, 0.04892
 0.75, 0.75659, 0.07893, 0.05953
 1.00, 0.73165, 0.10043, 0.07354
 1.25, 0.71683, 0.12415, 0.08907
 1.50, 0.70378, 0.14796, 0.10575
 1.75, 0.68974, 0.17278, 0.12475
 2.00, 0.68028, 0.19857, 0.14602
 2.25, 0.67277, 0.22384, 0.16878
 2.50, 0.66051, 0.24931, 0.19387
 2.75, 0.64708, 0.27662, 0.22227
 3.00, 0.63757, 0.30495, 0.25305
 3.25, 0.62714, 0.33344, 0.28587
 3.50, 0.61222, 0.36399, 0.32268
 3.75, 0.59837, 0.39801, 0.36427
 4.00, 0.58758, 0.43430, 0.40902
 4.25, 0.57384, 0.47319, 0.45781
 4.50, 0.55612, 0.51830, 0.51512
 4.75, 0.54004, 0.57192, 0.58339
 5.00, 0.52553, 0.63417, 0.66328
 5.25, 0.50706, 0.70889, 0.76042
 5.50, 0.48521, 0.80466, 0.88503
 5.75, 0.46603, 0.92782, 1.04452
 6.00, 0.45110, 1.08007, 1.24336
 6.25, 0.43724, 1.26536, 1.48839
 6.50, 0.42253, 1.48990, 1.78286
 6.75, 0.40550, 1.75250, 2.12070
 7.00, 0.38100, 2.04586, 2.50067
 7.25, 0.34304, 2.37208, 2.93413
 7.50, 0.29160, 2.74845, 3.42139
 7.75, 0.23387, 3.19250, 3.91230
 8.00, 0.17929, 3.69035, 4.27836
 8.25, 0.13417, 4.17597, 4.41607
 8.50, 0.09992, 4.56816, 4.41895
 8.75, 0.07443, 4.82736, 4.47674
 9.00, 0.05470, 4.96240, 4.70361
 9.25, 0.03888, 4.99794, 5.13815
 9.50, 0.02660, 4.95247, 5.78317
 9.75, 0.01809, 4.85301, 6.56118
10.00, 0.01306, 4.74780, 7.28434
10.25, 0.01038, 4.64607, 7.92377
10.50, 0.00855, 4.43370, 8.87431
10.75, 0.00660, 3.94483, 10.29774
11.00, 0.00447, 3.12465, 11.27468
11.25, 0.00262, 2.23865, 10.64353
11.50, 0.00144, 1.53239, 8.94838
11.75, 0.00109, 1.08917, 7.30816
12.00, 0.00166, 0.83930, 6.11474
12.25, 0.00326, 0.65509, 5.08259
12.50, 0.00585, 0.50437, 4.16713
12.75, 0.00898, 0.40287, 3.52844
13.00, 0.01170, 0.33604, 3.06888
13.25, 0.01293, 0.24505, 2.44120
13.50, 0.01206, 0.14817, 1.77325
13.75, 0.00941, 0.08605, 1.29055
14.00, 0.00609, 0.05812, 0.99917
14.25, 0.00323, 0.04509, 0.81461
14.50, 0.00140, 0.03575, 0.67984
14.75, 0.00049, 0.02878, 0.57029
15.00, 0.00014, 0.02438, 0.48128
15.25, 0.00003, 0.02094, 0.39290
15.50, 0.00001, 0.01917, 0.32756
15.75, 0.00000, 0.01813, 0.28139
16.00, 0.00000, 0.01717, 0.24505
16.25, 0.00000, 0.01647, 0.22005
16.50, 0.00000, 0.01568, 0.20227
16.75, 0.00000, 0.01482, 0.18887
17.00, 0.00000, 0.01429, 0.17953
17.25, 0.00000, 0.01396, 0.17332
17.50, 0.00000, 0.01378, 0.16958
17.75, 0.00000, 0.01370, 0.16746
18.00, 0.00000, 0.01364, 0.16633
18.25, 0.00000, 0.01359, 0.16552
18.50, 0.00000, 0.01352, 0.16472
18.75, 0.00000, 0.01342, 0.16394
19.00, 0.00000, 0.01331, 0.16327
19.25, 0.00000, 0.01317, 0.16257
19.50, 0.00000, 0.01306, 0.16199
19.75, 0.00000, 0.01299, 0.16159
20.00, 0.00000, 0.01294, 0.16127
20.25, 0.00000, 0.01292, 0.16098
20.50, 0.00000, 0.01289, 0.16072
20.75, 0.00000, 0.01284, 0.16043
21.00, 0.00000, 0.01277, 0.16003
21.25, 0.00000, 0.01268, 0.15958
21.50, 0.00000, 0.01261, 0.15920
21.75, 0.00000, 0.01255, 0.15894
22.00, 0.00000, 0.01252, 0.15880
22.25, 0.00000, 0.01251, 0.15876
22.50, 0.00000, 0.01249, 0.15876
22.75, 0.00000, 0.01247, 0.15876
23.00, 0.00000, 0.01245, 0.15874
23.25, 0.00000, 0.01243, 0.15871
23.50, 0.00000, 0.01241, 0.15867
23.75, 0.00000, 0.01239, 0.15863
24.00, 0.00000, 0.01238, 0.15861
24.25, 0.00000, 0.01238, 0.15859
24.50, 0.00000, 0.01237, 0.15859
24.75, 0.00000, 0.01237, 0.15860
25.00, 0.00000, 0.01236, 0.15861
