    z,     phi,       u,       T
    d,        ,  rt(gd),      gd
 0.00, 0.52876, 0.00321, 0.00553
 0.25, 0.62737, 0.00386, 0.00560
 0.50, 0.70751, 0.00463, 0.00597
 0.75, 0.74998, 0.00571, 0.00685
 1.00, 0.75771, 0.00736, 0.00846
 1.25, 0.75282, 0.00953, 0.01082
 1.50, 0.74848, 0.01180, 0.01371
 1.75, 0.74037, 0.01395, 0.01708
 2.00, 0.72862, 0.01616, 0.02109
 2.25, 0.72177, 0.01847, 0.02556
 2.50, 0.71859, 0.02075, 0.03010
 2.75, 0.71198, 0.02308, 0.03482
 3.00, 0.70562, 0.02620, 0.04018
 3.25, 0.70561, 0.03146, 0.04648
 3.50, 0.70559, 0.04083, 0.05450
 3.75, 0.69615, 0.05621, 0.06620
 4.00, 0.67394, 0.07771, 0.08328
 4.25, 0.62979, 0.10227, 0.10477
 4.50, 0.54759, 0.12605, 0.12774
 4.75, 0.42774, 0.14769, 0.15007
 5.00, 0.29734, 0.16736, 0.17070
 5.25, 0.18773, 0.18442, 0.18845
 5.50, 0.11122, 0.19773, 0.20232
 5.75, 0.06255, 0.20720, 0.21234
 6.00, 0.03250, 0.21376, 0.21934
 6.25, 0.01489, 0.21812, 0.22403
 6.50, 0.00578, 0.22026, 0.22651
 6.75, 0.00185, 0.22016, 0.22723
 7.00, 0.00048, 0.21831, 0.22998
 7.25, 0.00010, 0.21543, 0.24852
 7.50, 0.00002, 0.21060, 0.33708
 7.75, 0.00001, 0.19936, 0.63033
 8.00, 0.00002, 0.16919, 1.27183
 8.25, 0.00005, 0.12475, 1.86901
 8.50, 0.00011, 0.09779, 2.18297
 8.75, 0.00025, 0.07390, 2.42989
 9.00, 0.00056, 0.05863, 2.54346
 9.25, 0.00121, 0.04900, 2.60564
 9.50, 0.00248, 0.03399, 2.68361
 9.75, 0.00462, 0.01849, 2.74806
10.00, 0.00762, 0.01027, 2.76361
10.25, 0.01076, 0.00779, 2.75260
10.50, 0.01276, 0.00653, 2.67061
10.75, 0.01256, 0.00606, 2.53648
11.00, 0.01024, 0.00554, 2.46063
11.25, 0.00695, 0.00495, 2.42508
11.50, 0.00398, 0.00459, 2.37582
11.75, 0.00199, 0.00411, 2.26772
12.00, 0.00099, 0.00432, 2.12597
12.25, 0.00077, 0.00463, 2.04677
12.50, 0.00122, 0.00461, 2.00505
12.75, 0.00244, 0.00433, 1.94859
13.00, 0.00456, 0.00388, 1.85441
13.25, 0.00751, 0.00368, 1.73036
13.50, 0.01063, 0.00395, 1.64207
13.75, 0.01271, 0.00404, 1.57963
14.00, 0.01270, 0.00409, 1.51335
14.25, 0.01056, 0.00366, 1.42941
14.50, 0.00732, 0.00327, 1.32498
14.75, 0.00426, 0.00368, 1.23872
15.00, 0.00209, 0.00370, 1.16989
15.25, 0.00087, 0.00352, 1.10277
15.50, 0.00031, 0.00326, 1.03196
15.75, 0.00009, 0.00318, 0.95783
16.00, 0.00002, 0.00361, 0.90482
16.25, 0.00001, 0.00390, 0.86878
16.50, 0.00000, 0.00384, 0.84543
16.75, 0.00000, 0.00390, 0.82938
17.00, 0.00000, 0.00403, 0.81903
17.25, 0.00000, 0.00420, 0.81213
17.50, 0.00000, 0.00434, 0.80760
17.75, 0.00000, 0.00440, 0.80431
18.00, 0.00000, 0.00444, 0.80232
18.25, 0.00000, 0.00450, 0.80074
18.50, 0.00000, 0.00454, 0.79915
18.75, 0.00000, 0.00456, 0.79793
19.00, 0.00000, 0.00458, 0.79690
19.25, 0.00000, 0.00461, 0.79626
19.50, 0.00000, 0.00465, 0.79587
19.75, 0.00000, 0.00469, 0.79548
20.00, 0.00000, 0.00471, 0.79511
20.25, 0.00000, 0.00472, 0.79476
20.50, 0.00000, 0.00472, 0.79453
20.75, 0.00000, 0.00472, 0.79441
21.00, 0.00000, 0.00472, 0.79436
21.25, 0.00000, 0.00472, 0.79430
21.50, 0.00000, 0.00472, 0.79419
21.75, 0.00000, 0.00473, 0.79403
22.00, 0.00000, 0.00473, 0.79387
22.25, 0.00000, 0.00473, 0.79376
22.50, 0.00000, 0.00473, 0.79370
22.75, 0.00000, 0.00473, 0.79366
23.00, 0.00000, 0.00474, 0.79360
23.25, 0.00000, 0.00474, 0.79355
23.50, 0.00000, 0.00475, 0.79352
23.75, 0.00000, 0.00475, 0.79351
24.00, 0.00000,     NaN,     NaN
24.25, 0.00000,     NaN,     NaN
24.50, 0.00000,     NaN,     NaN
24.75, 0.00000,     NaN,     NaN
25.00, 0.00000,     NaN,     NaN
