    z,     phi,       u,       T
    d,        ,  rt(gd),      gd
 0.00, 0.46583, 0.03145, 0.01010
 0.25, 0.56760, 0.03467, 0.01082
 0.50, 0.65438, 0.03942, 0.01201
 0.75, 0.70586, 0.04722, 0.01406
 1.00, 0.72053, 0.05975, 0.01729
 1.25, 0.71762, 0.07681, 0.02157
 1.50, 0.71301, 0.09568, 0.02639
 1.75, 0.70552, 0.11439, 0.03171
 2.00, 0.69326, 0.13353, 0.03788
 2.25, 0.68243, 0.15336, 0.04488
 2.50, 0.67425, 0.17270, 0.05242
 2.75, 0.66346, 0.19132, 0.06070
 3.00, 0.65086, 0.21012, 0.07020
 3.25, 0.64056, 0.22896, 0.08114
 3.50, 0.62945, 0.24717, 0.09405
 3.75, 0.61328, 0.26553, 0.11035
 4.00, 0.59634, 0.28530, 0.13104
 4.25, 0.58382, 0.30654, 0.15550
 4.50, 0.57334, 0.32958, 0.18358
 4.75, 0.56201, 0.35733, 0.21781
 5.00, 0.55226, 0.39470, 0.26257
 5.25, 0.54425, 0.44676, 0.32211
 5.50, 0.53078, 0.51840, 0.39909
 5.75, 0.50416, 0.61261, 0.49051
 6.00, 0.46176, 0.72434, 0.58323
 6.25, 0.40319, 0.83963, 0.66183
 6.50, 0.32898, 0.94689, 0.72239
 6.75, 0.24520, 1.04415, 0.76983
 7.00, 0.16466, 1.13056, 0.80691
 7.25, 0.09972, 1.20166, 0.83434
 7.50, 0.05509, 1.25629, 0.85428
 7.75, 0.02796, 1.29761, 0.86894
 8.00, 0.01289, 1.32833, 0.88048
 8.25, 0.00527, 1.34124, 0.89995
 8.50, 0.00194, 1.29641, 0.95778
 8.75, 0.00103, 1.11958, 1.04208
 9.00, 0.00175, 0.92993, 1.04613
 9.25, 0.00424, 0.84680, 1.03553
 9.50, 0.00881, 0.77786, 1.01840
 9.75, 0.01493, 0.74712, 1.00779
10.00, 0.02072, 0.70669, 0.99385
10.25, 0.02373, 0.64068, 0.95385
10.50, 0.02249, 0.59749, 0.91866
10.75, 0.01760, 0.57775, 0.90479
11.00, 0.01131, 0.54251, 0.87783
11.25, 0.00591, 0.48029, 0.81559
11.50, 0.00249, 0.42663, 0.75035
11.75, 0.00083, 0.39994, 0.71469
12.00, 0.00022, 0.38240, 0.69303
12.25, 0.00005, 0.35076, 0.65495
12.50, 0.00001, 0.30437, 0.59291
12.75, 0.00000, 0.25730, 0.52050
13.00, 0.00000, 0.22141, 0.46028
13.25, 0.00000, 0.19758, 0.41896
13.50, 0.00000, 0.17362, 0.38007
13.75, 0.00000, 0.14178, 0.32681
14.00, 0.00000, 0.10372, 0.25841
14.25, 0.00000, 0.06892, 0.19141
14.50, 0.00000, 0.04096, 0.13497
14.75, 0.00000, 0.02204, 0.09469
15.00, 0.00000, 0.01090, 0.07020
15.25, 0.00000, 0.00502, 0.05716
15.50, 0.00000, 0.00199, 0.05029
15.75, 0.00000, 0.00059, 0.04715
16.00, 0.00000, -0.00006, 0.04590
16.25, 0.00000, -0.00031, 0.04545
16.50, 0.00000, -0.00050, 0.04504
16.75, 0.00000, -0.00068, 0.04464
17.00, 0.00000, -0.00084, 0.04429
17.25, 0.00000, -0.00089, 0.04421
17.50, 0.00000, -0.00089, 0.04422
17.75, 0.00000, -0.00089, 0.04423
18.00, 0.00000, -0.00088, 0.04425
18.25, 0.00000, -0.00088, 0.04426
18.50, 0.00000, -0.00088, 0.04428
18.75, 0.00000, -0.00088, 0.04429
19.00, 0.00000, -0.00087, 0.04430
19.25, 0.00000, -0.00087, 0.04430
19.50, 0.00000, -0.00087, 0.04431
19.75, 0.00000, -0.00087, 0.04432
20.00, 0.00000, -0.00086, 0.04433
20.25, 0.00000, -0.00086, 0.04435
20.50, 0.00000, -0.00086, 0.04437
20.75, 0.00000, -0.00085, 0.04438
21.00, 0.00000, -0.00085, 0.04439
21.25, 0.00000, -0.00085, 0.04440
21.50, 0.00000, -0.00085, 0.04440
21.75, 0.00000, -0.00084, 0.04441
22.00, 0.00000, -0.00084, 0.04441
22.25, 0.00000, -0.00084, 0.04442
22.50, 0.00000, -0.00084, 0.04442
22.75, 0.00000, -0.00084, 0.04443
23.00, 0.00000, -0.00084, 0.04443
23.25, 0.00000, -0.00084, 0.04443
23.50, 0.00000, -0.00083, 0.04444
23.75, 0.00000, -0.00083, 0.04444
24.00, 0.00000, -0.00083, 0.04444
24.25, 0.00000, -0.00083, 0.04445
24.50, 0.00000, -0.00083, 0.04445
24.75, 0.00000, -0.00083, 0.04445
25.00, 0.00000, -0.00083, 0.04446
