    z,     phi,       u,       T
    d,        ,  rt(gd),      gd
 0.00, 0.46393, 0.11353, 0.12313
 0.25, 0.49174, 0.15928, 0.15960
 0.50, 0.54326, 0.21598, 0.20016
 0.75, 0.60802, 0.28024, 0.24345
 1.00, 0.65946, 0.35538, 0.29509
 1.25, 0.67755, 0.45433, 0.36292
 1.50, 0.66997, 0.58620, 0.44176
 1.75, 0.65578, 0.73938, 0.51453
 2.00, 0.63881, 0.89600, 0.58039
 2.25, 0.61582, 1.05779, 0.65105
 2.50, 0.59352, 1.23166, 0.72039
 2.75, 0.57762, 1.40670, 0.77775
 3.00, 0.56137, 1.57308, 0.83837
 3.25, 0.53993, 1.74219, 0.91983
 3.50, 0.52033, 1.92443, 1.00995
 3.75, 0.50745, 2.10939, 1.09008
 4.00, 0.49536, 2.28739, 1.16949
 4.25, 0.47933, 2.46762, 1.26354
 4.50, 0.46325, 2.65959, 1.36427
 4.75, 0.45066, 2.85731, 1.45677
 5.00, 0.43902, 3.05347, 1.54701
 5.25, 0.42603, 3.25260, 1.64807
 5.50, 0.41365, 3.46077, 1.75615
 5.75, 0.40375, 3.67438, 1.85792
 6.00, 0.39495, 3.88647, 1.95247
 6.25, 0.38546, 4.09694, 2.04913
 6.50, 0.37549, 4.30985, 2.14868
 6.75, 0.36572, 4.52491, 2.24157
 7.00, 0.35571, 4.73809, 2.32188
 7.25, 0.34469, 4.94700, 2.38792
 7.50, 0.33263, 5.15107, 2.43992
 7.75, 0.31980, 5.34831, 2.47882
 8.00, 0.30608, 5.53575, 2.50578
 8.25, 0.29102, 5.71319, 2.52156
 8.50, 0.27461, 5.88155, 2.52471
 8.75, 0.25728, 6.04060, 2.51080
 9.00, 0.23943, 6.18862, 2.47977
 9.25, 0.22107, 6.32315, 2.43671
 9.50, 0.20199, 6.44142, 2.38791
 9.75, 0.18232, 6.54286, 2.34295
10.00, 0.16266, 6.63052, 2.30636
10.25, 0.14371, 6.70782, 2.27974
10.50, 0.12576, 6.77650, 2.26397
10.75, 0.10864, 6.83724, 2.25181
11.00, 0.09220, 6.89030, 2.23832
11.25, 0.07656, 6.93696, 2.22054
11.50, 0.06216, 6.97831, 2.19644
11.75, 0.04945, 7.01508, 2.16904
12.00, 0.03878, 7.04636, 2.14104
12.25, 0.03031, 7.07362, 2.11660
12.50, 0.02389, 7.09739, 2.09639
12.75, 0.01908, 7.11632, 2.07715
13.00, 0.01535, 7.12967, 2.06290
13.25, 0.01227, 7.13981, 2.05384
13.50, 0.00954, 7.14848, 2.04472
13.75, 0.00705, 7.15554, 2.03904
14.00, 0.00479, 7.16147, 2.03755
14.25, 0.00291, 7.16622, 2.03785
14.50, 0.00153, 7.17041, 2.03655
14.75, 0.00068, 7.17461, 2.03225
15.00, 0.00025, 7.17865, 2.02802
15.25, 0.00008, 7.18223, 2.02472
15.50, 0.00002, 7.18547, 2.02202
15.75, 0.00000, 7.18870, 2.01823
16.00, 0.00000, 7.19170, 2.01408
16.25, 0.00000, 7.19429, 2.01079
16.50, 0.00000, 7.19661, 2.00830
16.75, 0.00000, 7.19854, 2.00598
17.00, 0.00000, 7.20002, 2.00448
17.25, 0.00000, 7.20127, 2.00483
17.50, 0.00000, 7.20254, 2.00588
17.75, 0.00000, 7.20356, 2.00733
18.00, 0.00000, 7.20429, 2.00889
18.25, 0.00000, 7.20506, 2.00957
18.50, 0.00000, 7.20601, 2.00964
18.75, 0.00000, 7.20709, 2.00887
19.00, 0.00000, 7.20839, 2.00776
19.25, 0.00000, 7.20965, 2.00711
19.50, 0.00000, 7.21063, 2.00758
19.75, 0.00000, 7.21143, 2.00862
20.00, 0.00000, 7.21201, 2.00992
20.25, 0.00000, 7.21224, 2.01202
20.50, 0.00000, 7.21240, 2.01418
20.75, 0.00000, 7.21265, 2.01590
21.00, 0.00000, 7.21299, 2.01686
21.25, 0.00000, 7.21333, 2.01684
21.50, 0.00000, 7.21353, 2.01697
21.75, 0.00000, 7.21367, 2.01791
22.00, 0.00000, 7.21393, 2.01935
22.25, 0.00000, 7.21431, 2.02106
22.50, 0.00000, 7.21467, 2.02313
22.75, 0.00000, 7.21495, 2.02546
23.00, 0.00000, 7.21526, 2.02740
23.25, 0.00000, 7.21560, 2.02887
23.50, 0.00000, 7.21585, 2.03002
23.75, 0.00000, 7.21598, 2.03131
24.00, 0.00000, 7.21612, 2.03213
24.25, 0.00000, 7.21629, 2.03276
24.50, 0.00000, 7.21647, 2.03357
24.75, 0.00000, 7.21665, 2.03448
25.00, 0.00000, 7.21681, 2.03537
